{
    "resembles": {
        "słówko": "resembles",
        "tłumaczenie": "przypomina; verb: być podobnym, przypominać kogoś coś z wyglądu",
        "zdanie przykładowe": null
    },
    "in advance for that": {
        "słówko": "in advance for that",
        "tłumaczenie": "w tym celu",
        "zdanie przykładowe": null
    },
    "carry out": {
        "słówko": "carry out",
        "tłumaczenie": "przeprowadzając coś",
        "zdanie przykładowe": null
    },
    "vital": {
        "słówko": "vital",
        "tłumaczenie": "niezbędny; adjective: istotny, niezbędny, witalny, zasadniczy, podstawowy, życiowy, konieczny, żywotny, decydujący, najwyższej wagi, kapitalny, związany z życiem ludzkim",
        "zdanie przykładowe": null
    },
    "accommodate": {
        "słówko": "accommodate",
        "tłumaczenie": "pogodzić, ulokować, akomodować",
        "zdanie przykładowe": null
    },
    "brace yourself": {
        "słówko": "brace yourself",
        "tłumaczenie": "przygotuj się",
        "zdanie przykładowe": null
    },
    "condition stated in advance": {
        "słówko": "condition stated in advance",
        "tłumaczenie": "warunek określony z góry",
        "zdanie przykładowe": null
    },
    "moreover": {
        "słówko": "moreover",
        "tłumaczenie": "ponadto; adverb: ponadto, poza tym, nadto, dalej",
        "zdanie przykładowe": null
    },
    "thus": {
        "słówko": "thus",
        "tłumaczenie": "zatem; adverb: a zatem, tak więc",
        "zdanie przykładowe": null
    },
    "without too much fuss": {
        "słówko": "without too much fuss",
        "tłumaczenie": "bez większego zamieszania",
        "zdanie przykładowe": null
    },
    "all in all": {
        "słówko": "all in all",
        "tłumaczenie": "w sumie",
        "zdanie przykładowe": null
    }
}